…
``` r
apt_buildings
```

    ## # A tibble: 3,455 × 37
    ##       id air_c…¹ ameni…² balco…³ barri…⁴ bike_…⁵ exter…⁶ fire_…⁷ garba…⁸ heati…⁹
    ##    <dbl> <chr>   <chr>   <chr>   <chr>   <chr>   <chr>   <chr>   <chr>   <chr>  
    ##  1 10359 NONE    Outdoo… YES     YES     0 indo… NO      YES     YES     HOT WA…
    ##  2 10360 NONE    Outdoo… YES     NO      0 indo… NO      YES     YES     HOT WA…
    ##  3 10361 NONE    <NA>    YES     NO      Not Av… NO      YES     NO      HOT WA…
    ##  4 10362 NONE    <NA>    YES     YES     Not Av… YES     YES     NO      HOT WA…
    ##  5 10363 NONE    <NA>    NO      NO      12 ind… NO      YES     NO      HOT WA…
    ##  6 10364 NONE    <NA>    NO      NO      Not Av… <NA>    YES     NO      HOT WA…
    ##  7 10365 NONE    <NA>    NO      YES     Not Av… NO      YES     NO      HOT WA…
    ##  8 10366 CENTRA… Indoor… YES     NO      Not Av… NO      YES     YES     HOT WA…
    ##  9 10367 NONE    <NA>    YES     YES     0 indo… NO      YES     YES     ELECTR…
    ## 10 10368 NONE    Indoor… YES     YES     Not Av… NO      YES     NO      HOT WA…
    ## # … with 3,445 more rows, 27 more variables: intercom <chr>,
    ## #   laundry_room <chr>, locker_or_storage_room <chr>, no_of_elevators <dbl>,
    ## #   parking_type <chr>, pets_allowed <chr>, prop_management_company_name <chr>,
    ## #   property_type <chr>, rsn <dbl>, separate_gas_meters <chr>,
    ## #   separate_hydro_meters <chr>, separate_water_meters <chr>,
    ## #   site_address <chr>, sprinkler_system <chr>, visitor_parking <chr>,
    ## #   ward <chr>, window_type <chr>, year_built <dbl>, year_registered <dbl>, …
…
I would like to get a list of apartment without visitor parking, they
are the apartments that I would like to avoid.

In my analysis, I filter the data with vistor_parking equal to
“UNAVALIBLE” and store the new dataset as vis_unavali

``` r
vis_unavali<-filter(apt_buildings, visitor_parking =="UNAVAILABLE")
print(vis_unavali)
```

    ## # A tibble: 1,359 × 37
    ##       id air_c…¹ ameni…² balco…³ barri…⁴ bike_…⁵ exter…⁶ fire_…⁷ garba…⁸ heati…⁹
    ##    <dbl> <chr>   <chr>   <chr>   <chr>   <chr>   <chr>   <chr>   <chr>   <chr>  
    ##  1 10361 NONE    <NA>    YES     NO      Not Av… NO      YES     NO      HOT WA…
    ##  2 10362 NONE    <NA>    YES     YES     Not Av… YES     YES     NO      HOT WA…
    ##  3 10363 NONE    <NA>    NO      NO      12 ind… NO      YES     NO      HOT WA…
    ##  4 10364 NONE    <NA>    NO      NO      Not Av… <NA>    YES     NO      HOT WA…
    ##  5 10369 NONE    <NA>    NO      YES     Not Av… NO      YES     NO      HOT WA…
    ##  6 10372 NONE    <NA>    YES     NO      0 indo… NO      YES     NO      HOT WA…
    ##  7 10376 NONE    <NA>    NO      NO      Not Av… NO      YES     NO      HOT WA…
    ##  8 10380 NONE    <NA>    NO      NO      Not Av… NO      YES     NO      HOT WA…
    ##  9 10382 INDIVI… <NA>    NO      <NA>    8 indo… <NA>    YES     NO      HOT WA…
    ## 10 10385 NONE    <NA>    YES     YES     Not Av… NO      YES     YES     FORCED…
    ## # … with 1,349 more rows, 27 more variables: intercom <chr>,
    ## #   laundry_room <chr>, locker_or_storage_room <chr>, no_of_elevators <dbl>,
    ## #   parking_type <chr>, pets_allowed <chr>, prop_management_company_name <chr>,
    ## #   property_type <chr>, rsn <dbl>, separate_gas_meters <chr>,
    ## #   separate_hydro_meters <chr>, separate_water_meters <chr>,
    ## #   site_address <chr>, sprinkler_system <chr>, visitor_parking <chr>,
    ## #   ward <chr>, window_type <chr>, year_built <dbl>, year_registered <dbl>, …
…
*1.1 create categorical variable with “low storey”:(storeys \<4),
“medium storey”:(4<sub>storey</sub>7), “high storey”:(storey\>7) *1.2
create a bar chart to compare the the number of apartments belong to 3
category. the best one would be R2 which has clear edge and reasonalbe
distance between columns.

``` r
storey_variable <- cut(apt_buildings$no_of_storeys,
                      breaks=c(-Inf,4, 7, Inf),
                       labels=c('Low', 'Medium', 'high'))
apt_buildings$storeys_height<-factor(storey_variable)
apt_buildings
```

    ## # A tibble: 3,455 × 38
    ##       id air_c…¹ ameni…² balco…³ barri…⁴ bike_…⁵ exter…⁶ fire_…⁷ garba…⁸ heati…⁹
    ##    <dbl> <chr>   <chr>   <chr>   <chr>   <chr>   <chr>   <chr>   <chr>   <chr>  
    ##  1 10359 NONE    Outdoo… YES     YES     0 indo… NO      YES     YES     HOT WA…
    ##  2 10360 NONE    Outdoo… YES     NO      0 indo… NO      YES     YES     HOT WA…
    ##  3 10361 NONE    <NA>    YES     NO      Not Av… NO      YES     NO      HOT WA…
    ##  4 10362 NONE    <NA>    YES     YES     Not Av… YES     YES     NO      HOT WA…
    ##  5 10363 NONE    <NA>    NO      NO      12 ind… NO      YES     NO      HOT WA…
    ##  6 10364 NONE    <NA>    NO      NO      Not Av… <NA>    YES     NO      HOT WA…
    ##  7 10365 NONE    <NA>    NO      YES     Not Av… NO      YES     NO      HOT WA…
    ##  8 10366 CENTRA… Indoor… YES     NO      Not Av… NO      YES     YES     HOT WA…
    ##  9 10367 NONE    <NA>    YES     YES     0 indo… NO      YES     YES     ELECTR…
    ## 10 10368 NONE    Indoor… YES     YES     Not Av… NO      YES     NO      HOT WA…
    ## # … with 3,445 more rows, 28 more variables: intercom <chr>,
    ## #   laundry_room <chr>, locker_or_storage_room <chr>, no_of_elevators <dbl>,
    ## #   parking_type <chr>, pets_allowed <chr>, prop_management_company_name <chr>,
    ## #   property_type <chr>, rsn <dbl>, separate_gas_meters <chr>,
    ## #   separate_hydro_meters <chr>, separate_water_meters <chr>,
    ## #   site_address <chr>, sprinkler_system <chr>, visitor_parking <chr>,
    ## #   ward <chr>, window_type <chr>, year_built <dbl>, year_registered <dbl>, …
…
\*1.2 create a density graph to compare the distribution of the
different groups of visitor parking type, to make it easier to compare,
the density plot was filled with color which alpha is set to 0.5.

``` r
R2<-apt_buildings %>%
  filter(visitor_parking == "UNAVAILABLE")
print(R2)
```

    ## # A tibble: 1,359 × 38
    ##       id air_c…¹ ameni…² balco…³ barri…⁴ bike_…⁵ exter…⁶ fire_…⁷ garba…⁸ heati…⁹
    ##    <dbl> <chr>   <chr>   <chr>   <chr>   <chr>   <chr>   <chr>   <chr>   <chr>  
    ##  1 10361 NONE    <NA>    YES     NO      Not Av… NO      YES     NO      HOT WA…
    ##  2 10362 NONE    <NA>    YES     YES     Not Av… YES     YES     NO      HOT WA…
    ##  3 10363 NONE    <NA>    NO      NO      12 ind… NO      YES     NO      HOT WA…
    ##  4 10364 NONE    <NA>    NO      NO      Not Av… <NA>    YES     NO      HOT WA…
    ##  5 10369 NONE    <NA>    NO      YES     Not Av… NO      YES     NO      HOT WA…
    ##  6 10372 NONE    <NA>    YES     NO      0 indo… NO      YES     NO      HOT WA…
    ##  7 10376 NONE    <NA>    NO      NO      Not Av… NO      YES     NO      HOT WA…
    ##  8 10380 NONE    <NA>    NO      NO      Not Av… NO      YES     NO      HOT WA…
    ##  9 10382 INDIVI… <NA>    NO      <NA>    8 indo… <NA>    YES     NO      HOT WA…
    ## 10 10385 NONE    <NA>    YES     YES     Not Av… NO      YES     YES     FORCED…
    ## # … with 1,349 more rows, 28 more variables: intercom <chr>,
    ## #   laundry_room <chr>, locker_or_storage_room <chr>, no_of_elevators <dbl>,
    ## #   parking_type <chr>, pets_allowed <chr>, prop_management_company_name <chr>,
    ## #   property_type <chr>, rsn <dbl>, separate_gas_meters <chr>,
    ## #   separate_hydro_meters <chr>, separate_water_meters <chr>,
    ## #   site_address <chr>, sprinkler_system <chr>, visitor_parking <chr>,
    ## #   ward <chr>, window_type <chr>, year_built <dbl>, year_registered <dbl>, …
…
